%YAML 1.1
%TAG !u! tag:unity3d.com,2011:
--- !u!74 &7400000
AnimationClip:
  m_ObjectHideFlags: 0
  m_CorrespondingSourceObject: {fileID: 0}
  m_PrefabInstance: {fileID: 0}
  m_PrefabAsset: {fileID: 0}
  m_Name: Dog_heal_1
  serializedVersion: 6
  m_Legacy: 0
  m_Compressed: 0
  m_UseHighQualityCurve: 1
  m_RotationCurves: []
  m_CompressedRotationCurves: []
  m_EulerCurves: []
  m_PositionCurves: []
  m_ScaleCurves: []
  m_FloatCurves: []
  m_PPtrCurves:
  - curve:
    - time: 0
      value: {fileID: 21300000, guid: 06f5a785929111d4f8acb6f43ebb318a, type: 3}
    - time: 0.041666668
      value: {fileID: 21300000, guid: d319d314cb863df4ea01b5123a722532, type: 3}
    - time: 0.083333336
      value: {fileID: 21300000, guid: ecd2d9a1bcaa5fd4cb020d497c71e080, type: 3}
    - time: 0.125
      value: {fileID: 21300000, guid: 2e9ea51a0a213504da72a92d1c0de28b, type: 3}
    - time: 0.16666667
      value: {fileID: 21300000, guid: fb143b9fe4fa0424aaebef8c601aad6d, type: 3}
    - time: 0.20833333
      value: {fileID: 21300000, guid: 1862a15d852ac814cbff757c42dc5b26, type: 3}
    - time: 0.25
      value: {fileID: 21300000, guid: f060e438ecb36be4490c1deffc0ab028, type: 3}
    - time: 0.29166666
      value: {fileID: 21300000, guid: 5ed1d9b6ecdea6640be85aac9db85c81, type: 3}
    - time: 0.33333334
      value: {fileID: 21300000, guid: 2a9aa0d095248684a80af4c21e07ca24, type: 3}
    - time: 0.375
      value: {fileID: 21300000, guid: 5ef045edf4f0b8848ade3f508285fc9c, type: 3}
    - time: 0.41666666
      value: {fileID: 21300000, guid: 958010d3893e4404899fa04b0569d16a, type: 3}
    - time: 0.45833334
      value: {fileID: 21300000, guid: 94f582552d4a26441b02c1e0fa51e770, type: 3}
    - time: 0.5
      value: {fileID: 21300000, guid: 5d4fe72c66b5f7b4fb82662d00239ed3, type: 3}
    - time: 0.5416667
      value: {fileID: 21300000, guid: 0d6464c4a5b78b841a1d098c64e4367b, type: 3}
    - time: 0.5833333
      value: {fileID: 21300000, guid: cbc98b8b3a552de4baf5daa1c7cf1739, type: 3}
    - time: 0.625
      value: {fileID: 21300000, guid: c5de40d90ec1bdd46be3e3ea49aea26e, type: 3}
    - time: 0.6666667
      value: {fileID: 21300000, guid: f4744b2b0e7b23b47a108e3c2937bf95, type: 3}
    - time: 0.7083333
      value: {fileID: 21300000, guid: 1a75e8acd7462d747abed6c29720e591, type: 3}
    - time: 0.75
      value: {fileID: 21300000, guid: d2e753cee92dea944a5b07209d5aef66, type: 3}
    - time: 0.7916667
      value: {fileID: 21300000, guid: 46103c93da6c4ff4a9023082ca1b984c, type: 3}
    - time: 0.8333333
      value: {fileID: 21300000, guid: 95189e863284b674fa9c2efc42462229, type: 3}
    - time: 0.875
      value: {fileID: 21300000, guid: 8e66a2e85bc113f439900b140f1527c1, type: 3}
    - time: 0.9166667
      value: {fileID: 21300000, guid: 35f1f1d926983ef43b7a82612f1ab512, type: 3}
    - time: 0.9583333
      value: {fileID: 21300000, guid: fbbe7ac686347e94db19546fa9e2c3a9, type: 3}
    - time: 1
      value: {fileID: 21300000, guid: 7be2ce7c6bdcaf845a2d672b3c86f828, type: 3}
    - time: 1.0416666
      value: {fileID: 21300000, guid: 8147fdc2b5e99ba44bee516c31603028, type: 3}
    - time: 1.0833334
      value: {fileID: 21300000, guid: c1a01d5eaec91674c86e5ba5f03cefe1, type: 3}
    - time: 1.125
      value: {fileID: 21300000, guid: 987579d07a33e0e4ab9b5da876f26733, type: 3}
    - time: 1.1666666
      value: {fileID: 21300000, guid: 44ff0fd45d124164cb45c9b0d99f54cd, type: 3}
    - time: 1.2083334
      value: {fileID: 21300000, guid: ddecb1b7c344bcd4b911fcf430c82b8c, type: 3}
    attribute: m_Sprite
    path: 
    classID: 114
    script: {fileID: 11500000, guid: fe87c0e1cc204ed48ad3b37840f39efc, type: 3}
  m_SampleRate: 24
  m_WrapMode: 0
  m_Bounds:
    m_Center: {x: 0, y: 0, z: 0}
    m_Extent: {x: 0, y: 0, z: 0}
  m_ClipBindingConstant:
    genericBindings:
    - serializedVersion: 2
      path: 0
      attribute: 2015549526
      script: {fileID: 11500000, guid: fe87c0e1cc204ed48ad3b37840f39efc, type: 3}
      typeID: 114
      customType: 0
      isPPtrCurve: 1
    pptrCurveMapping:
    - {fileID: 21300000, guid: 06f5a785929111d4f8acb6f43ebb318a, type: 3}
    - {fileID: 21300000, guid: d319d314cb863df4ea01b5123a722532, type: 3}
    - {fileID: 21300000, guid: ecd2d9a1bcaa5fd4cb020d497c71e080, type: 3}
    - {fileID: 21300000, guid: 2e9ea51a0a213504da72a92d1c0de28b, type: 3}
    - {fileID: 21300000, guid: fb143b9fe4fa0424aaebef8c601aad6d, type: 3}
    - {fileID: 21300000, guid: 1862a15d852ac814cbff757c42dc5b26, type: 3}
    - {fileID: 21300000, guid: f060e438ecb36be4490c1deffc0ab028, type: 3}
    - {fileID: 21300000, guid: 5ed1d9b6ecdea6640be85aac9db85c81, type: 3}
    - {fileID: 21300000, guid: 2a9aa0d095248684a80af4c21e07ca24, type: 3}
    - {fileID: 21300000, guid: 5ef045edf4f0b8848ade3f508285fc9c, type: 3}
    - {fileID: 21300000, guid: 958010d3893e4404899fa04b0569d16a, type: 3}
    - {fileID: 21300000, guid: 94f582552d4a26441b02c1e0fa51e770, type: 3}
    - {fileID: 21300000, guid: 5d4fe72c66b5f7b4fb82662d00239ed3, type: 3}
    - {fileID: 21300000, guid: 0d6464c4a5b78b841a1d098c64e4367b, type: 3}
    - {fileID: 21300000, guid: cbc98b8b3a552de4baf5daa1c7cf1739, type: 3}
    - {fileID: 21300000, guid: c5de40d90ec1bdd46be3e3ea49aea26e, type: 3}
    - {fileID: 21300000, guid: f4744b2b0e7b23b47a108e3c2937bf95, type: 3}
    - {fileID: 21300000, guid: 1a75e8acd7462d747abed6c29720e591, type: 3}
    - {fileID: 21300000, guid: d2e753cee92dea944a5b07209d5aef66, type: 3}
    - {fileID: 21300000, guid: 46103c93da6c4ff4a9023082ca1b984c, type: 3}
    - {fileID: 21300000, guid: 95189e863284b674fa9c2efc42462229, type: 3}
    - {fileID: 21300000, guid: 8e66a2e85bc113f439900b140f1527c1, type: 3}
    - {fileID: 21300000, guid: 35f1f1d926983ef43b7a82612f1ab512, type: 3}
    - {fileID: 21300000, guid: fbbe7ac686347e94db19546fa9e2c3a9, type: 3}
    - {fileID: 21300000, guid: 7be2ce7c6bdcaf845a2d672b3c86f828, type: 3}
    - {fileID: 21300000, guid: 8147fdc2b5e99ba44bee516c31603028, type: 3}
    - {fileID: 21300000, guid: c1a01d5eaec91674c86e5ba5f03cefe1, type: 3}
    - {fileID: 21300000, guid: 987579d07a33e0e4ab9b5da876f26733, type: 3}
    - {fileID: 21300000, guid: 44ff0fd45d124164cb45c9b0d99f54cd, type: 3}
    - {fileID: 21300000, guid: ddecb1b7c344bcd4b911fcf430c82b8c, type: 3}
  m_AnimationClipSettings:
    serializedVersion: 2
    m_AdditiveReferencePoseClip: {fileID: 0}
    m_AdditiveReferencePoseTime: 0
    m_StartTime: 0
    m_StopTime: 1.25
    m_OrientationOffsetY: 0
    m_Level: 0
    m_CycleOffset: 0
    m_HasAdditiveReferencePose: 0
    m_LoopTime: 0
    m_LoopBlend: 0
    m_LoopBlendOrientation: 0
    m_LoopBlendPositionY: 0
    m_LoopBlendPositionXZ: 0
    m_KeepOriginalOrientation: 0
    m_KeepOriginalPositionY: 1
    m_KeepOriginalPositionXZ: 0
    m_HeightFromFeet: 0
    m_Mirror: 0
  m_EditorCurves: []
  m_EulerEditorCurves: []
  m_HasGenericRootTransform: 0
  m_HasMotionFloatCurves: 0
  m_Events: []
