%YAML 1.1
%TAG !u! tag:unity3d.com,2011:
--- !u!74 &7400000
AnimationClip:
  m_ObjectHideFlags: 0
  m_CorrespondingSourceObject: {fileID: 0}
  m_PrefabInstance: {fileID: 0}
  m_PrefabAsset: {fileID: 0}
  m_Name: Dog_idle
  serializedVersion: 6
  m_Legacy: 0
  m_Compressed: 0
  m_UseHighQualityCurve: 1
  m_RotationCurves: []
  m_CompressedRotationCurves: []
  m_EulerCurves: []
  m_PositionCurves: []
  m_ScaleCurves: []
  m_FloatCurves: []
  m_PPtrCurves:
  - curve:
    - time: 0
      value: {fileID: 21300000, guid: e1d47df38f17bf34b9ee9a451762474e, type: 3}
    - time: 0.041666668
      value: {fileID: 21300000, guid: 08e9c0321035a2f4ca6e117455b3fa96, type: 3}
    - time: 0.083333336
      value: {fileID: 21300000, guid: 2597908334e93c74b9f22daaeb56bfce, type: 3}
    - time: 0.125
      value: {fileID: 21300000, guid: 4af792a4631f08942a2fe4e5c8548c2d, type: 3}
    - time: 0.16666667
      value: {fileID: 21300000, guid: 2f57e707498dcac46af70cdb273c7d13, type: 3}
    - time: 0.20833333
      value: {fileID: 21300000, guid: f2b620dc68d2ea14db3de3d03ffd8e43, type: 3}
    - time: 0.25
      value: {fileID: 21300000, guid: c919049a113b60645bcb1ccc623d9dc9, type: 3}
    - time: 0.29166666
      value: {fileID: 21300000, guid: 06aa990b21a74cb43abeafdce373f1e2, type: 3}
    - time: 0.33333334
      value: {fileID: 21300000, guid: 331a498eac761ab43aa277dd1be03f74, type: 3}
    - time: 0.375
      value: {fileID: 21300000, guid: ff1919099becef4409f61c14bc7ab46b, type: 3}
    - time: 0.41666666
      value: {fileID: 21300000, guid: d39c399b2ab2d2c48a5069e6c8b56eda, type: 3}
    - time: 0.45833334
      value: {fileID: 21300000, guid: 5ee3de0dad07ad0468e3a0bcc8c8493c, type: 3}
    - time: 0.5
      value: {fileID: 21300000, guid: 3a8a9ac747d30de44990f43206ca65d2, type: 3}
    - time: 0.5416667
      value: {fileID: 21300000, guid: 5d3f79405e96dfa46b06fa75f0a94c27, type: 3}
    - time: 0.5833333
      value: {fileID: 21300000, guid: c6d08e152f69ec24da003c606f91a09f, type: 3}
    - time: 0.625
      value: {fileID: 21300000, guid: 408b6a81375478d429b569c5e9de4adb, type: 3}
    - time: 0.6666667
      value: {fileID: 21300000, guid: 761df514fc4592c4b8b78c187991f0e7, type: 3}
    - time: 0.7083333
      value: {fileID: 21300000, guid: 3025c96bed4b41f48bd4b381a39dc771, type: 3}
    - time: 0.75
      value: {fileID: 21300000, guid: ec0d3bb30ef53834c8b5ab2ebac4cef7, type: 3}
    - time: 0.7916667
      value: {fileID: 21300000, guid: a6e650723e7b71e49bb73b0b420a4fde, type: 3}
    - time: 0.8333333
      value: {fileID: 21300000, guid: decda525ed625634cbf68cbc4c6dd00d, type: 3}
    - time: 0.875
      value: {fileID: 21300000, guid: f6def0cff54686d488d753948fc61f7d, type: 3}
    - time: 0.9166667
      value: {fileID: 21300000, guid: d22dcdbab619a0a42be7d99a710c4ce9, type: 3}
    - time: 0.9583333
      value: {fileID: 21300000, guid: 65c09afa9edd9f642a1f33bfc1aff1a9, type: 3}
    - time: 1
      value: {fileID: 21300000, guid: 09e152ea5a5e48744abac315d9f406c3, type: 3}
    - time: 1.0416666
      value: {fileID: 21300000, guid: 2a0d94e534b2a3445808886c85cc8ec1, type: 3}
    - time: 1.0833334
      value: {fileID: 21300000, guid: 15a16df204ed434418c8dd76ca368990, type: 3}
    - time: 1.125
      value: {fileID: 21300000, guid: 1acd969807df39b4588133a6daf61ae0, type: 3}
    - time: 1.1666666
      value: {fileID: 21300000, guid: e52c2bf4a4cfb724898b769872827a32, type: 3}
    - time: 1.2083334
      value: {fileID: 21300000, guid: 1f16c7d6cacac4543bfbe00c22081993, type: 3}
    attribute: m_Sprite
    path: 
    classID: 114
    script: {fileID: 11500000, guid: fe87c0e1cc204ed48ad3b37840f39efc, type: 3}
  m_SampleRate: 24
  m_WrapMode: 0
  m_Bounds:
    m_Center: {x: 0, y: 0, z: 0}
    m_Extent: {x: 0, y: 0, z: 0}
  m_ClipBindingConstant:
    genericBindings:
    - serializedVersion: 2
      path: 0
      attribute: 2015549526
      script: {fileID: 11500000, guid: fe87c0e1cc204ed48ad3b37840f39efc, type: 3}
      typeID: 114
      customType: 0
      isPPtrCurve: 1
    pptrCurveMapping:
    - {fileID: 21300000, guid: e1d47df38f17bf34b9ee9a451762474e, type: 3}
    - {fileID: 21300000, guid: 08e9c0321035a2f4ca6e117455b3fa96, type: 3}
    - {fileID: 21300000, guid: 2597908334e93c74b9f22daaeb56bfce, type: 3}
    - {fileID: 21300000, guid: 4af792a4631f08942a2fe4e5c8548c2d, type: 3}
    - {fileID: 21300000, guid: 2f57e707498dcac46af70cdb273c7d13, type: 3}
    - {fileID: 21300000, guid: f2b620dc68d2ea14db3de3d03ffd8e43, type: 3}
    - {fileID: 21300000, guid: c919049a113b60645bcb1ccc623d9dc9, type: 3}
    - {fileID: 21300000, guid: 06aa990b21a74cb43abeafdce373f1e2, type: 3}
    - {fileID: 21300000, guid: 331a498eac761ab43aa277dd1be03f74, type: 3}
    - {fileID: 21300000, guid: ff1919099becef4409f61c14bc7ab46b, type: 3}
    - {fileID: 21300000, guid: d39c399b2ab2d2c48a5069e6c8b56eda, type: 3}
    - {fileID: 21300000, guid: 5ee3de0dad07ad0468e3a0bcc8c8493c, type: 3}
    - {fileID: 21300000, guid: 3a8a9ac747d30de44990f43206ca65d2, type: 3}
    - {fileID: 21300000, guid: 5d3f79405e96dfa46b06fa75f0a94c27, type: 3}
    - {fileID: 21300000, guid: c6d08e152f69ec24da003c606f91a09f, type: 3}
    - {fileID: 21300000, guid: 408b6a81375478d429b569c5e9de4adb, type: 3}
    - {fileID: 21300000, guid: 761df514fc4592c4b8b78c187991f0e7, type: 3}
    - {fileID: 21300000, guid: 3025c96bed4b41f48bd4b381a39dc771, type: 3}
    - {fileID: 21300000, guid: ec0d3bb30ef53834c8b5ab2ebac4cef7, type: 3}
    - {fileID: 21300000, guid: a6e650723e7b71e49bb73b0b420a4fde, type: 3}
    - {fileID: 21300000, guid: decda525ed625634cbf68cbc4c6dd00d, type: 3}
    - {fileID: 21300000, guid: f6def0cff54686d488d753948fc61f7d, type: 3}
    - {fileID: 21300000, guid: d22dcdbab619a0a42be7d99a710c4ce9, type: 3}
    - {fileID: 21300000, guid: 65c09afa9edd9f642a1f33bfc1aff1a9, type: 3}
    - {fileID: 21300000, guid: 09e152ea5a5e48744abac315d9f406c3, type: 3}
    - {fileID: 21300000, guid: 2a0d94e534b2a3445808886c85cc8ec1, type: 3}
    - {fileID: 21300000, guid: 15a16df204ed434418c8dd76ca368990, type: 3}
    - {fileID: 21300000, guid: 1acd969807df39b4588133a6daf61ae0, type: 3}
    - {fileID: 21300000, guid: e52c2bf4a4cfb724898b769872827a32, type: 3}
    - {fileID: 21300000, guid: 1f16c7d6cacac4543bfbe00c22081993, type: 3}
  m_AnimationClipSettings:
    serializedVersion: 2
    m_AdditiveReferencePoseClip: {fileID: 0}
    m_AdditiveReferencePoseTime: 0
    m_StartTime: 0
    m_StopTime: 1.25
    m_OrientationOffsetY: 0
    m_Level: 0
    m_CycleOffset: 0
    m_HasAdditiveReferencePose: 0
    m_LoopTime: 1
    m_LoopBlend: 0
    m_LoopBlendOrientation: 0
    m_LoopBlendPositionY: 0
    m_LoopBlendPositionXZ: 0
    m_KeepOriginalOrientation: 0
    m_KeepOriginalPositionY: 1
    m_KeepOriginalPositionXZ: 0
    m_HeightFromFeet: 0
    m_Mirror: 0
  m_EditorCurves: []
  m_EulerEditorCurves: []
  m_HasGenericRootTransform: 0
  m_HasMotionFloatCurves: 0
  m_Events: []
