%YAML 1.1
%TAG !u! tag:unity3d.com,2011:
--- !u!74 &7400000
AnimationClip:
  m_ObjectHideFlags: 0
  m_CorrespondingSourceObject: {fileID: 0}
  m_PrefabInstance: {fileID: 0}
  m_PrefabAsset: {fileID: 0}
  m_Name: heal_1
  serializedVersion: 6
  m_Legacy: 0
  m_Compressed: 0
  m_UseHighQualityCurve: 1
  m_RotationCurves: []
  m_CompressedRotationCurves: []
  m_EulerCurves: []
  m_PositionCurves: []
  m_ScaleCurves:
  - curve:
      serializedVersion: 2
      m_Curve:
      - serializedVersion: 3
        time: 0
        value: {x: 1, y: 1, z: 1}
        inSlope: {x: 0, y: 0, z: 0}
        outSlope: {x: 0, y: 0, z: 0}
        tangentMode: 0
        weightedMode: 0
        inWeight: {x: 0.33333334, y: 0.33333334, z: 0.33333334}
        outWeight: {x: 0.33333334, y: 0.33333334, z: 0.33333334}
      - serializedVersion: 3
        time: 0.7916667
        value: {x: 1, y: 1, z: 1}
        inSlope: {x: 0, y: 0, z: 0}
        outSlope: {x: 0, y: 0, z: 0}
        tangentMode: 0
        weightedMode: 0
        inWeight: {x: 0.33333334, y: 0.33333334, z: 0.33333334}
        outWeight: {x: 0.33333334, y: 0.33333334, z: 0.33333334}
      m_PreInfinity: 2
      m_PostInfinity: 2
      m_RotationOrder: 4
    path: 
  m_FloatCurves: []
  m_PPtrCurves:
  - curve:
    - time: 0
      value: {fileID: 21300000, guid: a6df5e89132d37144840b0072ea4dd60, type: 3}
    - time: 0.041666668
      value: {fileID: 21300000, guid: 6e36dbb294c42b946b8dbf31ccaa7585, type: 3}
    - time: 0.083333336
      value: {fileID: 21300000, guid: 06bcae28196307b4498ab9e89ba543dc, type: 3}
    - time: 0.125
      value: {fileID: 21300000, guid: 4aadf9b4a3835a4418db78878e249bc6, type: 3}
    - time: 0.16666667
      value: {fileID: 21300000, guid: 8057ef0cd546a7848b33c6fe9a240b58, type: 3}
    - time: 0.20833333
      value: {fileID: 21300000, guid: a39bb29b561f73e4488f8c37ba4cce2b, type: 3}
    - time: 0.25
      value: {fileID: 21300000, guid: b62696e6e1f280f4da41e570d0596def, type: 3}
    - time: 0.29166666
      value: {fileID: 21300000, guid: dedc9e65efd75fc49ac5ad2072595e98, type: 3}
    - time: 0.33333334
      value: {fileID: 21300000, guid: e2e43fcc09cb42e4b9b0422220d3cf55, type: 3}
    - time: 0.375
      value: {fileID: 21300000, guid: 89371b96e66078c4db26f4d58e8935bd, type: 3}
    - time: 0.41666666
      value: {fileID: 21300000, guid: 62cac9eddb58d924e920eed46306204e, type: 3}
    - time: 0.45833334
      value: {fileID: 21300000, guid: c0abc57e92476294bae9d0c728e56afd, type: 3}
    - time: 0.5
      value: {fileID: 21300000, guid: fed49462e6ead2040810fb49fdf1dd81, type: 3}
    - time: 0.5416667
      value: {fileID: 21300000, guid: 46523655b7f5dba4b9647a075d00210d, type: 3}
    - time: 0.5833333
      value: {fileID: 21300000, guid: 7aef3904e2bee7c49a433b2efd594d7d, type: 3}
    - time: 0.625
      value: {fileID: 21300000, guid: 9dfbbbd611fe3524a8c1d3ea1b62ad17, type: 3}
    - time: 0.6666667
      value: {fileID: 21300000, guid: b0b8598cec96b844993df600ab7ca1ee, type: 3}
    - time: 0.7083333
      value: {fileID: 21300000, guid: ea72d1d132ddb9a4987d386a774510b9, type: 3}
    - time: 0.75
      value: {fileID: 21300000, guid: 5983cc3c6bbb3504583346c65c218b3a, type: 3}
    attribute: m_Sprite
    path: 
    classID: 114
    script: {fileID: 11500000, guid: fe87c0e1cc204ed48ad3b37840f39efc, type: 3}
  m_SampleRate: 24
  m_WrapMode: 0
  m_Bounds:
    m_Center: {x: 0, y: 0, z: 0}
    m_Extent: {x: 0, y: 0, z: 0}
  m_ClipBindingConstant:
    genericBindings:
    - serializedVersion: 2
      path: 0
      attribute: 2015549526
      script: {fileID: 11500000, guid: fe87c0e1cc204ed48ad3b37840f39efc, type: 3}
      typeID: 114
      customType: 0
      isPPtrCurve: 1
    - serializedVersion: 2
      path: 0
      attribute: 3
      script: {fileID: 0}
      typeID: 4
      customType: 0
      isPPtrCurve: 0
    pptrCurveMapping:
    - {fileID: 21300000, guid: a6df5e89132d37144840b0072ea4dd60, type: 3}
    - {fileID: 21300000, guid: 6e36dbb294c42b946b8dbf31ccaa7585, type: 3}
    - {fileID: 21300000, guid: 06bcae28196307b4498ab9e89ba543dc, type: 3}
    - {fileID: 21300000, guid: 4aadf9b4a3835a4418db78878e249bc6, type: 3}
    - {fileID: 21300000, guid: 8057ef0cd546a7848b33c6fe9a240b58, type: 3}
    - {fileID: 21300000, guid: a39bb29b561f73e4488f8c37ba4cce2b, type: 3}
    - {fileID: 21300000, guid: b62696e6e1f280f4da41e570d0596def, type: 3}
    - {fileID: 21300000, guid: dedc9e65efd75fc49ac5ad2072595e98, type: 3}
    - {fileID: 21300000, guid: e2e43fcc09cb42e4b9b0422220d3cf55, type: 3}
    - {fileID: 21300000, guid: 89371b96e66078c4db26f4d58e8935bd, type: 3}
    - {fileID: 21300000, guid: 62cac9eddb58d924e920eed46306204e, type: 3}
    - {fileID: 21300000, guid: c0abc57e92476294bae9d0c728e56afd, type: 3}
    - {fileID: 21300000, guid: fed49462e6ead2040810fb49fdf1dd81, type: 3}
    - {fileID: 21300000, guid: 46523655b7f5dba4b9647a075d00210d, type: 3}
    - {fileID: 21300000, guid: 7aef3904e2bee7c49a433b2efd594d7d, type: 3}
    - {fileID: 21300000, guid: 9dfbbbd611fe3524a8c1d3ea1b62ad17, type: 3}
    - {fileID: 21300000, guid: b0b8598cec96b844993df600ab7ca1ee, type: 3}
    - {fileID: 21300000, guid: ea72d1d132ddb9a4987d386a774510b9, type: 3}
    - {fileID: 21300000, guid: 5983cc3c6bbb3504583346c65c218b3a, type: 3}
  m_AnimationClipSettings:
    serializedVersion: 2
    m_AdditiveReferencePoseClip: {fileID: 0}
    m_AdditiveReferencePoseTime: 0
    m_StartTime: 0
    m_StopTime: 0.7916667
    m_OrientationOffsetY: 0
    m_Level: 0
    m_CycleOffset: 0
    m_HasAdditiveReferencePose: 0
    m_LoopTime: 0
    m_LoopBlend: 0
    m_LoopBlendOrientation: 0
    m_LoopBlendPositionY: 0
    m_LoopBlendPositionXZ: 0
    m_KeepOriginalOrientation: 0
    m_KeepOriginalPositionY: 1
    m_KeepOriginalPositionXZ: 0
    m_HeightFromFeet: 0
    m_Mirror: 0
  m_EditorCurves:
  - curve:
      serializedVersion: 2
      m_Curve:
      - serializedVersion: 3
        time: 0
        value: 1
        inSlope: 0
        outSlope: 0
        tangentMode: 136
        weightedMode: 0
        inWeight: 0.33333334
        outWeight: 0.33333334
      - serializedVersion: 3
        time: 0.7916667
        value: 1
        inSlope: 0
        outSlope: 0
        tangentMode: 136
        weightedMode: 0
        inWeight: 0.33333334
        outWeight: 0.33333334
      m_PreInfinity: 2
      m_PostInfinity: 2
      m_RotationOrder: 4
    attribute: m_LocalScale.x
    path: 
    classID: 224
    script: {fileID: 0}
  - curve:
      serializedVersion: 2
      m_Curve:
      - serializedVersion: 3
        time: 0
        value: 1
        inSlope: 0
        outSlope: 0
        tangentMode: 136
        weightedMode: 0
        inWeight: 0.33333334
        outWeight: 0.33333334
      - serializedVersion: 3
        time: 0.7916667
        value: 1
        inSlope: 0
        outSlope: 0
        tangentMode: 136
        weightedMode: 0
        inWeight: 0.33333334
        outWeight: 0.33333334
      m_PreInfinity: 2
      m_PostInfinity: 2
      m_RotationOrder: 4
    attribute: m_LocalScale.y
    path: 
    classID: 224
    script: {fileID: 0}
  - curve:
      serializedVersion: 2
      m_Curve:
      - serializedVersion: 3
        time: 0
        value: 1
        inSlope: 0
        outSlope: 0
        tangentMode: 136
        weightedMode: 0
        inWeight: 0.33333334
        outWeight: 0.33333334
      - serializedVersion: 3
        time: 0.7916667
        value: 1
        inSlope: 0
        outSlope: 0
        tangentMode: 136
        weightedMode: 0
        inWeight: 0.33333334
        outWeight: 0.33333334
      m_PreInfinity: 2
      m_PostInfinity: 2
      m_RotationOrder: 4
    attribute: m_LocalScale.z
    path: 
    classID: 224
    script: {fileID: 0}
  m_EulerEditorCurves: []
  m_HasGenericRootTransform: 0
  m_HasMotionFloatCurves: 0
  m_Events: []
