%YAML 1.1
%TAG !u! tag:unity3d.com,2011:
--- !u!74 &7400000
AnimationClip:
  m_ObjectHideFlags: 0
  m_CorrespondingSourceObject: {fileID: 0}
  m_PrefabInstance: {fileID: 0}
  m_PrefabAsset: {fileID: 0}
  m_Name: heal
  serializedVersion: 6
  m_Legacy: 0
  m_Compressed: 0
  m_UseHighQualityCurve: 1
  m_RotationCurves: []
  m_CompressedRotationCurves: []
  m_EulerCurves: []
  m_PositionCurves: []
  m_ScaleCurves: []
  m_FloatCurves: []
  m_PPtrCurves:
  - curve:
    - time: 0
      value: {fileID: 21300000, guid: 28d1651ae9644a047bf3cdc1410990d2, type: 3}
    - time: 0.041666668
      value: {fileID: 21300000, guid: 2000652111adeac438ef2c122b27af85, type: 3}
    - time: 0.083333336
      value: {fileID: 21300000, guid: defce0ac2dc2eff49a1ccb230c823e9e, type: 3}
    - time: 0.125
      value: {fileID: 21300000, guid: f66a30a2f4b0db3408a1c52341b86f44, type: 3}
    - time: 0.16666667
      value: {fileID: 21300000, guid: 7cc3a5d5fdab23544a8b3a056d8a17dc, type: 3}
    - time: 0.20833333
      value: {fileID: 21300000, guid: 203f75813d586104089933f4c25bacc4, type: 3}
    - time: 0.25
      value: {fileID: 21300000, guid: edde4ce997f19974d87b000f2690ca7c, type: 3}
    - time: 0.29166666
      value: {fileID: 21300000, guid: a9322263dd19c444c987df3f0d2663d4, type: 3}
    - time: 0.33333334
      value: {fileID: 21300000, guid: 23d8f77988cadc14eac18fea07362730, type: 3}
    - time: 0.375
      value: {fileID: 21300000, guid: 76ece8c22388454468db02f89fda3f43, type: 3}
    - time: 0.41666666
      value: {fileID: 21300000, guid: f44c6aa4b08633443ba8c7904282571e, type: 3}
    attribute: m_Sprite
    path: 
    classID: 114
    script: {fileID: 11500000, guid: fe87c0e1cc204ed48ad3b37840f39efc, type: 3}
  m_SampleRate: 24
  m_WrapMode: 0
  m_Bounds:
    m_Center: {x: 0, y: 0, z: 0}
    m_Extent: {x: 0, y: 0, z: 0}
  m_ClipBindingConstant:
    genericBindings:
    - serializedVersion: 2
      path: 0
      attribute: 2015549526
      script: {fileID: 11500000, guid: fe87c0e1cc204ed48ad3b37840f39efc, type: 3}
      typeID: 114
      customType: 0
      isPPtrCurve: 1
    pptrCurveMapping:
    - {fileID: 21300000, guid: 28d1651ae9644a047bf3cdc1410990d2, type: 3}
    - {fileID: 21300000, guid: 2000652111adeac438ef2c122b27af85, type: 3}
    - {fileID: 21300000, guid: defce0ac2dc2eff49a1ccb230c823e9e, type: 3}
    - {fileID: 21300000, guid: f66a30a2f4b0db3408a1c52341b86f44, type: 3}
    - {fileID: 21300000, guid: 7cc3a5d5fdab23544a8b3a056d8a17dc, type: 3}
    - {fileID: 21300000, guid: 203f75813d586104089933f4c25bacc4, type: 3}
    - {fileID: 21300000, guid: edde4ce997f19974d87b000f2690ca7c, type: 3}
    - {fileID: 21300000, guid: a9322263dd19c444c987df3f0d2663d4, type: 3}
    - {fileID: 21300000, guid: 23d8f77988cadc14eac18fea07362730, type: 3}
    - {fileID: 21300000, guid: 76ece8c22388454468db02f89fda3f43, type: 3}
    - {fileID: 21300000, guid: f44c6aa4b08633443ba8c7904282571e, type: 3}
  m_AnimationClipSettings:
    serializedVersion: 2
    m_AdditiveReferencePoseClip: {fileID: 0}
    m_AdditiveReferencePoseTime: 0
    m_StartTime: 0
    m_StopTime: 0.4583333
    m_OrientationOffsetY: 0
    m_Level: 0
    m_CycleOffset: 0
    m_HasAdditiveReferencePose: 0
    m_LoopTime: 0
    m_LoopBlend: 0
    m_LoopBlendOrientation: 0
    m_LoopBlendPositionY: 0
    m_LoopBlendPositionXZ: 0
    m_KeepOriginalOrientation: 0
    m_KeepOriginalPositionY: 1
    m_KeepOriginalPositionXZ: 0
    m_HeightFromFeet: 0
    m_Mirror: 0
  m_EditorCurves: []
  m_EulerEditorCurves: []
  m_HasGenericRootTransform: 0
  m_HasMotionFloatCurves: 0
  m_Events: []
