%YAML 1.1
%TAG !u! tag:unity3d.com,2011:
--- !u!114 &11400000
MonoBehaviour:
  m_ObjectHideFlags: 0
  m_CorrespondingSourceObject: {fileID: 0}
  m_PrefabInstance: {fileID: 0}
  m_PrefabAsset: {fileID: 0}
  m_GameObject: {fileID: 0}
  m_Enabled: 1
  m_EditorHideFlags: 0
  m_Script: {fileID: 11500000, guid: f1b3b4b945939a54ea0b23d3396115fb, type: 3}
  m_Name: BIG_C_SkeletonData
  m_EditorClassIdentifier: 
  atlasAssets:
  - {fileID: 11400000, guid: 4ee7c84a34132be40802e6e71bbd3e7f, type: 2}
  scale: 0.01
  skeletonJSON: {fileID: 4900000, guid: 99643aa65b257d54c9180493af9baf29, type: 3}
  isUpgradingBlendModeMaterials: 0
  blendModeMaterials:
    requiresBlendModeMaterials: 1
    applyAdditiveMaterial: 1
    additiveMaterials:
    - pageName: BIG_C.png
      material: {fileID: 2100000, guid: a3cbbf7790895ec4fac7ce0d5d257ff9, type: 2}
    multiplyMaterials: []
    screenMaterials: []
  skeletonDataModifiers: []
  fromAnimation: []
  toAnimation: []
  duration: []
  defaultMix: 0.2
  controller: {fileID: 0}
