%YAML 1.1
%TAG !u! tag:unity3d.com,2011:
--- !u!114 &11400000
MonoBehaviour:
  m_ObjectHideFlags: 0
  m_CorrespondingSourceObject: {fileID: 0}
  m_PrefabInstance: {fileID: 0}
  m_PrefabAsset: {fileID: 0}
  m_GameObject: {fileID: 0}
  m_Enabled: 1
  m_EditorHideFlags: 0
  m_Script: {fileID: 11500000, guid: a6b194f808b1af6499c93410e504af42, type: 3}
  m_Name: BIG_C_Atlas
  m_EditorClassIdentifier: 
  atlasFile: {fileID: 4900000, guid: c692524fdd0e9544793f6a1191920124, type: 3}
  materials:
  - {fileID: 2100000, guid: 498fa326326692e4aaa656f3ba470d7e, type: 2}
