%YAML 1.1
%TAG !u! tag:unity3d.com,2011:
--- !u!74 &7400000
AnimationClip:
  m_ObjectHideFlags: 0
  m_CorrespondingSourceObject: {fileID: 0}
  m_PrefabInstance: {fileID: 0}
  m_PrefabAsset: {fileID: 0}
  m_Name: Blue_Pop
  serializedVersion: 6
  m_Legacy: 0
  m_Compressed: 0
  m_UseHighQualityCurve: 1
  m_RotationCurves: []
  m_CompressedRotationCurves: []
  m_EulerCurves: []
  m_PositionCurves: []
  m_ScaleCurves: []
  m_FloatCurves: []
  m_PPtrCurves:
  - curve:
    - time: 0
      value: {fileID: 21300000, guid: 1ce443696aac71840be3291cd9683e5f, type: 3}
    - time: 0.033333335
      value: {fileID: 21300000, guid: de81671527247e44c8bea50a9b0ae7d6, type: 3}
    - time: 0.06666667
      value: {fileID: 21300000, guid: 4f2cf39e4d2430b4ca8fa8f5cc6f9076, type: 3}
    - time: 0.1
      value: {fileID: 21300000, guid: 99c15ba4e7423204e92c6d8a3a039102, type: 3}
    - time: 0.13333334
      value: {fileID: 21300000, guid: f04ba097ae022834683b177a196599c1, type: 3}
    - time: 0.16666667
      value: {fileID: 21300000, guid: e074838ce361b1c4796ab49c65083438, type: 3}
    - time: 0.2
      value: {fileID: 21300000, guid: 7a79d1da462fb2c47a7404c690e91b62, type: 3}
    - time: 0.23333333
      value: {fileID: 21300000, guid: 09b6267a666d50440a668290c658181c, type: 3}
    attribute: m_Sprite
    path: 
    classID: 114
    script: {fileID: 11500000, guid: fe87c0e1cc204ed48ad3b37840f39efc, type: 3}
  m_SampleRate: 30
  m_WrapMode: 0
  m_Bounds:
    m_Center: {x: 0, y: 0, z: 0}
    m_Extent: {x: 0, y: 0, z: 0}
  m_ClipBindingConstant:
    genericBindings:
    - serializedVersion: 2
      path: 0
      attribute: 2015549526
      script: {fileID: 11500000, guid: fe87c0e1cc204ed48ad3b37840f39efc, type: 3}
      typeID: 114
      customType: 0
      isPPtrCurve: 1
    pptrCurveMapping:
    - {fileID: 21300000, guid: 1ce443696aac71840be3291cd9683e5f, type: 3}
    - {fileID: 21300000, guid: de81671527247e44c8bea50a9b0ae7d6, type: 3}
    - {fileID: 21300000, guid: 4f2cf39e4d2430b4ca8fa8f5cc6f9076, type: 3}
    - {fileID: 21300000, guid: 99c15ba4e7423204e92c6d8a3a039102, type: 3}
    - {fileID: 21300000, guid: f04ba097ae022834683b177a196599c1, type: 3}
    - {fileID: 21300000, guid: e074838ce361b1c4796ab49c65083438, type: 3}
    - {fileID: 21300000, guid: 7a79d1da462fb2c47a7404c690e91b62, type: 3}
    - {fileID: 21300000, guid: 09b6267a666d50440a668290c658181c, type: 3}
  m_AnimationClipSettings:
    serializedVersion: 2
    m_AdditiveReferencePoseClip: {fileID: 0}
    m_AdditiveReferencePoseTime: 0
    m_StartTime: 0
    m_StopTime: 0.26666668
    m_OrientationOffsetY: 0
    m_Level: 0
    m_CycleOffset: 0
    m_HasAdditiveReferencePose: 0
    m_LoopTime: 0
    m_LoopBlend: 0
    m_LoopBlendOrientation: 0
    m_LoopBlendPositionY: 0
    m_LoopBlendPositionXZ: 0
    m_KeepOriginalOrientation: 0
    m_KeepOriginalPositionY: 1
    m_KeepOriginalPositionXZ: 0
    m_HeightFromFeet: 0
    m_Mirror: 0
  m_EditorCurves: []
  m_EulerEditorCurves: []
  m_HasGenericRootTransform: 0
  m_HasMotionFloatCurves: 0
  m_Events: []
