%YAML 1.1
%TAG !u! tag:unity3d.com,2011:
--- !u!74 &7400000
AnimationClip:
  m_ObjectHideFlags: 0
  m_CorrespondingSourceObject: {fileID: 0}
  m_PrefabInstance: {fileID: 0}
  m_PrefabAsset: {fileID: 0}
  m_Name: Yellow_Pop
  serializedVersion: 6
  m_Legacy: 0
  m_Compressed: 0
  m_UseHighQualityCurve: 1
  m_RotationCurves: []
  m_CompressedRotationCurves: []
  m_EulerCurves: []
  m_PositionCurves: []
  m_ScaleCurves: []
  m_FloatCurves: []
  m_PPtrCurves:
  - curve:
    - time: 0
      value: {fileID: 21300000, guid: 2d006f92eb6adc84c8a8f091a344abaf, type: 3}
    - time: 0.033333335
      value: {fileID: 21300000, guid: ff526845aa54b21409572a4e0cd2d402, type: 3}
    - time: 0.06666667
      value: {fileID: 21300000, guid: b9b1ae75bca2f6c468747d4af5dd13f3, type: 3}
    - time: 0.1
      value: {fileID: 21300000, guid: 655db9b44c23a8c4a838b9e74117ef25, type: 3}
    - time: 0.13333334
      value: {fileID: 21300000, guid: c36dc58819116e147b9ec5a3e2c793da, type: 3}
    - time: 0.16666667
      value: {fileID: 21300000, guid: 2591fa6482bdf534a977ae4c164076de, type: 3}
    - time: 0.2
      value: {fileID: 21300000, guid: 77e443d80d0113f448ba3f52ad8b78f3, type: 3}
    - time: 0.23333333
      value: {fileID: 21300000, guid: 7b29d1130e46c6548bae0d3ad4c1ea91, type: 3}
    attribute: m_Sprite
    path: 
    classID: 114
    script: {fileID: 11500000, guid: fe87c0e1cc204ed48ad3b37840f39efc, type: 3}
  m_SampleRate: 30
  m_WrapMode: 0
  m_Bounds:
    m_Center: {x: 0, y: 0, z: 0}
    m_Extent: {x: 0, y: 0, z: 0}
  m_ClipBindingConstant:
    genericBindings:
    - serializedVersion: 2
      path: 0
      attribute: 2015549526
      script: {fileID: 11500000, guid: fe87c0e1cc204ed48ad3b37840f39efc, type: 3}
      typeID: 114
      customType: 0
      isPPtrCurve: 1
    pptrCurveMapping:
    - {fileID: 21300000, guid: 2d006f92eb6adc84c8a8f091a344abaf, type: 3}
    - {fileID: 21300000, guid: ff526845aa54b21409572a4e0cd2d402, type: 3}
    - {fileID: 21300000, guid: b9b1ae75bca2f6c468747d4af5dd13f3, type: 3}
    - {fileID: 21300000, guid: 655db9b44c23a8c4a838b9e74117ef25, type: 3}
    - {fileID: 21300000, guid: c36dc58819116e147b9ec5a3e2c793da, type: 3}
    - {fileID: 21300000, guid: 2591fa6482bdf534a977ae4c164076de, type: 3}
    - {fileID: 21300000, guid: 77e443d80d0113f448ba3f52ad8b78f3, type: 3}
    - {fileID: 21300000, guid: 7b29d1130e46c6548bae0d3ad4c1ea91, type: 3}
  m_AnimationClipSettings:
    serializedVersion: 2
    m_AdditiveReferencePoseClip: {fileID: 0}
    m_AdditiveReferencePoseTime: 0
    m_StartTime: 0
    m_StopTime: 0.26666668
    m_OrientationOffsetY: 0
    m_Level: 0
    m_CycleOffset: 0
    m_HasAdditiveReferencePose: 0
    m_LoopTime: 0
    m_LoopBlend: 0
    m_LoopBlendOrientation: 0
    m_LoopBlendPositionY: 0
    m_LoopBlendPositionXZ: 0
    m_KeepOriginalOrientation: 0
    m_KeepOriginalPositionY: 1
    m_KeepOriginalPositionXZ: 0
    m_HeightFromFeet: 0
    m_Mirror: 0
  m_EditorCurves: []
  m_EulerEditorCurves: []
  m_HasGenericRootTransform: 0
  m_HasMotionFloatCurves: 0
  m_Events: []
