%YAML 1.1
%TAG !u! tag:unity3d.com,2011:
--- !u!74 &7400000
AnimationClip:
  m_ObjectHideFlags: 0
  m_CorrespondingSourceObject: {fileID: 0}
  m_PrefabInstance: {fileID: 0}
  m_PrefabAsset: {fileID: 0}
  m_Name: A_boss_idle
  serializedVersion: 6
  m_Legacy: 0
  m_Compressed: 0
  m_UseHighQualityCurve: 1
  m_RotationCurves: []
  m_CompressedRotationCurves: []
  m_EulerCurves: []
  m_PositionCurves: []
  m_ScaleCurves: []
  m_FloatCurves: []
  m_PPtrCurves:
  - curve:
    - time: 0
      value: {fileID: 21300000, guid: 478692f36573e8141988bcaa888e3deb, type: 3}
    - time: 0.041666668
      value: {fileID: 21300000, guid: 4b5de367fb7ac1c45a61f066fba2fcea, type: 3}
    - time: 0.083333336
      value: {fileID: 21300000, guid: ee622e8ac03ffa44aabc12a4d4d29f5c, type: 3}
    - time: 0.125
      value: {fileID: 21300000, guid: 176d23eaf16314343a8b564c7c801c3f, type: 3}
    - time: 0.16666667
      value: {fileID: 21300000, guid: 5664d48503214e94292d7fd3e3b08faf, type: 3}
    - time: 0.20833333
      value: {fileID: 21300000, guid: 90135745c617f7941abc9f196d305fe3, type: 3}
    - time: 0.25
      value: {fileID: 21300000, guid: c886e74bd8f0c804b9aa4026a4414728, type: 3}
    - time: 0.29166666
      value: {fileID: 21300000, guid: 95ad9ec9322462449b3b759d60a6aae0, type: 3}
    - time: 0.33333334
      value: {fileID: 21300000, guid: 81dd9a581f1524d4aba45bc9a1ebd9ec, type: 3}
    - time: 0.375
      value: {fileID: 21300000, guid: 8bc3671fed3fe1544b72b219bd4da04f, type: 3}
    - time: 0.41666666
      value: {fileID: 21300000, guid: 711f4b64a4312104180412b3e3cbbc60, type: 3}
    - time: 0.45833334
      value: {fileID: 21300000, guid: 8d28abeb1151a85438774ed86611bedb, type: 3}
    - time: 0.5
      value: {fileID: 21300000, guid: 790760720c618254bbfa81ae80b1c21d, type: 3}
    - time: 0.5416667
      value: {fileID: 21300000, guid: 3e7f943c14a6a2140aa41f7544287c19, type: 3}
    - time: 0.5833333
      value: {fileID: 21300000, guid: e96a4a965c8bd8d4d90b38eebc01c3ee, type: 3}
    - time: 0.625
      value: {fileID: 21300000, guid: a99f09936e3bcba4989bc2fa6795ea3a, type: 3}
    - time: 0.6666667
      value: {fileID: 21300000, guid: cf4aab559ca7d1341a7b8e02f7d35657, type: 3}
    - time: 0.7083333
      value: {fileID: 21300000, guid: a4302a0e3fb4fba4a9c2804ab78b2e31, type: 3}
    - time: 0.75
      value: {fileID: 21300000, guid: d18f2ac68844d034eb18c3bd0d406fd8, type: 3}
    - time: 0.7916667
      value: {fileID: 21300000, guid: bb4c945ff7987c4428ce081088d81524, type: 3}
    - time: 0.8333333
      value: {fileID: 21300000, guid: 2286ce30e490f414c961bbd324c014f8, type: 3}
    - time: 0.875
      value: {fileID: 21300000, guid: 46880f2513e399449b3c3a5fabfc81e9, type: 3}
    - time: 0.9166667
      value: {fileID: 21300000, guid: 55ad0e33a7ae8f84baa32d55ac9a8052, type: 3}
    - time: 0.9583333
      value: {fileID: 21300000, guid: f7abe44c5c33da744ace9f1610a4229a, type: 3}
    - time: 1
      value: {fileID: 21300000, guid: e87073242e1c49f4d8d256121252c825, type: 3}
    - time: 1.0416666
      value: {fileID: 21300000, guid: 5451163a263b7b543bc225c6cbb4c4ae, type: 3}
    - time: 1.0833334
      value: {fileID: 21300000, guid: 88078e3051540ee4da1974f9e413ce38, type: 3}
    - time: 1.125
      value: {fileID: 21300000, guid: 4ef98ba6fd95c79468608df13b9862af, type: 3}
    - time: 1.1666666
      value: {fileID: 21300000, guid: 7523c7047b5ed53459b41f10d03fe6d0, type: 3}
    - time: 1.2083334
      value: {fileID: 21300000, guid: 99c37b4bd2b639340bde2b236501b0b7, type: 3}
    - time: 1.25
      value: {fileID: 21300000, guid: d2b41b2e217956a45adac44e61c774b9, type: 3}
    attribute: m_Sprite
    path: 
    classID: 114
    script: {fileID: 11500000, guid: fe87c0e1cc204ed48ad3b37840f39efc, type: 3}
  m_SampleRate: 24
  m_WrapMode: 0
  m_Bounds:
    m_Center: {x: 0, y: 0, z: 0}
    m_Extent: {x: 0, y: 0, z: 0}
  m_ClipBindingConstant:
    genericBindings:
    - serializedVersion: 2
      path: 0
      attribute: 2015549526
      script: {fileID: 11500000, guid: fe87c0e1cc204ed48ad3b37840f39efc, type: 3}
      typeID: 114
      customType: 0
      isPPtrCurve: 1
    pptrCurveMapping:
    - {fileID: 21300000, guid: 478692f36573e8141988bcaa888e3deb, type: 3}
    - {fileID: 21300000, guid: 4b5de367fb7ac1c45a61f066fba2fcea, type: 3}
    - {fileID: 21300000, guid: ee622e8ac03ffa44aabc12a4d4d29f5c, type: 3}
    - {fileID: 21300000, guid: 176d23eaf16314343a8b564c7c801c3f, type: 3}
    - {fileID: 21300000, guid: 5664d48503214e94292d7fd3e3b08faf, type: 3}
    - {fileID: 21300000, guid: 90135745c617f7941abc9f196d305fe3, type: 3}
    - {fileID: 21300000, guid: c886e74bd8f0c804b9aa4026a4414728, type: 3}
    - {fileID: 21300000, guid: 95ad9ec9322462449b3b759d60a6aae0, type: 3}
    - {fileID: 21300000, guid: 81dd9a581f1524d4aba45bc9a1ebd9ec, type: 3}
    - {fileID: 21300000, guid: 8bc3671fed3fe1544b72b219bd4da04f, type: 3}
    - {fileID: 21300000, guid: 711f4b64a4312104180412b3e3cbbc60, type: 3}
    - {fileID: 21300000, guid: 8d28abeb1151a85438774ed86611bedb, type: 3}
    - {fileID: 21300000, guid: 790760720c618254bbfa81ae80b1c21d, type: 3}
    - {fileID: 21300000, guid: 3e7f943c14a6a2140aa41f7544287c19, type: 3}
    - {fileID: 21300000, guid: e96a4a965c8bd8d4d90b38eebc01c3ee, type: 3}
    - {fileID: 21300000, guid: a99f09936e3bcba4989bc2fa6795ea3a, type: 3}
    - {fileID: 21300000, guid: cf4aab559ca7d1341a7b8e02f7d35657, type: 3}
    - {fileID: 21300000, guid: a4302a0e3fb4fba4a9c2804ab78b2e31, type: 3}
    - {fileID: 21300000, guid: d18f2ac68844d034eb18c3bd0d406fd8, type: 3}
    - {fileID: 21300000, guid: bb4c945ff7987c4428ce081088d81524, type: 3}
    - {fileID: 21300000, guid: 2286ce30e490f414c961bbd324c014f8, type: 3}
    - {fileID: 21300000, guid: 46880f2513e399449b3c3a5fabfc81e9, type: 3}
    - {fileID: 21300000, guid: 55ad0e33a7ae8f84baa32d55ac9a8052, type: 3}
    - {fileID: 21300000, guid: f7abe44c5c33da744ace9f1610a4229a, type: 3}
    - {fileID: 21300000, guid: e87073242e1c49f4d8d256121252c825, type: 3}
    - {fileID: 21300000, guid: 5451163a263b7b543bc225c6cbb4c4ae, type: 3}
    - {fileID: 21300000, guid: 88078e3051540ee4da1974f9e413ce38, type: 3}
    - {fileID: 21300000, guid: 4ef98ba6fd95c79468608df13b9862af, type: 3}
    - {fileID: 21300000, guid: 7523c7047b5ed53459b41f10d03fe6d0, type: 3}
    - {fileID: 21300000, guid: 99c37b4bd2b639340bde2b236501b0b7, type: 3}
    - {fileID: 21300000, guid: d2b41b2e217956a45adac44e61c774b9, type: 3}
  m_AnimationClipSettings:
    serializedVersion: 2
    m_AdditiveReferencePoseClip: {fileID: 0}
    m_AdditiveReferencePoseTime: 0
    m_StartTime: 0
    m_StopTime: 1.2916666
    m_OrientationOffsetY: 0
    m_Level: 0
    m_CycleOffset: 0
    m_HasAdditiveReferencePose: 0
    m_LoopTime: 1
    m_LoopBlend: 0
    m_LoopBlendOrientation: 0
    m_LoopBlendPositionY: 0
    m_LoopBlendPositionXZ: 0
    m_KeepOriginalOrientation: 0
    m_KeepOriginalPositionY: 1
    m_KeepOriginalPositionXZ: 0
    m_HeightFromFeet: 0
    m_Mirror: 0
  m_EditorCurves: []
  m_EulerEditorCurves: []
  m_HasGenericRootTransform: 0
  m_HasMotionFloatCurves: 0
  m_Events: []
